0.46|23.25|1.73|3@4|2@6|20@6
0.2|0.4|0.42|0.4|0.005|250|1200
13 0.38 1.37
13 1.17 1.37
13 1.96 1.37
13 2.74 1.37
13 3.53 1.37
13 4.32 1.37
13 5.11 1.37
13 5.89 1.37
13 6.68 1.37
13 7.47 1.37
13 8.25 1.37
13 9.04 1.37
13 9.83 1.37
13 10.62 1.37
13 11.40 1.37
13 12.19 1.37
13 13.39 1.37
13 14.58 1.37
13 15.37 1.37
13 16.15 1.37
13 16.94 1.37
13 17.73 1.37
13 0.38 0.91
13 1.17 0.91
13 1.96 0.91
13 2.74 0.91
13 3.53 0.91
13 4.32 0.91
13 5.11 0.91
13 5.89 0.91
13 6.68 0.91
13 7.47 0.91
13 8.25 0.91
13 9.04 0.91
13 9.83 0.91
13 10.62 0.91
13 11.40 0.91
13 12.19 0.91
13 13.39 0.91
13 14.58 0.91
13 15.37 0.91
13 16.15 0.91
13 16.94 0.91
13 17.73 0.91
13 0.38 0.46
13 1.17 0.46
13 1.96 0.46
13 2.74 0.46
13 3.53 0.46
13 4.32 0.46
13 5.11 0.46
13 5.89 0.46
13 6.68 0.46
13 7.47 0.46
13 8.25 0.46
13 9.04 0.46
13 9.83 0.46
13 10.62 0.46
13 11.40 0.46
13 12.19 0.46
13 13.39 0.46
13 14.58 0.46
13 15.37 0.46
13 16.15 0.46
13 16.94 0.46
13 17.73 0.46
13 0.38 -1.37
13 1.17 -1.37
13 1.96 -1.37
13 2.74 -1.37
13 3.53 -1.37
13 4.32 -1.37
13 5.11 -1.37
13 5.89 -1.37
13 6.68 -1.37
13 7.47 -1.37
13 8.25 -1.37
13 9.04 -1.37
13 9.83 -1.37
13 10.62 -1.37
13 11.40 -1.37
13 12.19 -1.37
13 13.39 -1.37
13 14.58 -1.37
13 15.37 -1.37
13 16.15 -1.37
13 16.94 -1.37
13 17.73 -1.37
13 0.38 -0.91
13 1.17 -0.91
13 1.96 -0.91
13 2.74 -0.91
13 3.53 -0.91
13 4.32 -0.91
13 5.11 -0.91
13 5.89 -0.91
13 6.68 -0.91
13 7.47 -0.91
13 8.25 -0.91
13 9.04 -0.91
13 9.83 -0.91
13 10.62 -0.91
13 11.40 -0.91
13 12.19 -0.91
13 13.39 -0.91
13 14.58 -0.91
13 15.37 -0.91
13 16.15 -0.91
13 16.94 -0.91
13 17.73 -0.91
13 0.38 -0.46
13 1.17 -0.46
13 1.96 -0.46
13 2.74 -0.46
13 3.53 -0.46
13 4.32 -0.46
13 5.11 -0.46
13 5.89 -0.46
13 6.68 -0.46
13 7.47 -0.46
13 8.25 -0.46
13 9.04 -0.46
13 9.83 -0.46
13 10.62 -0.46
13 11.40 -0.46
13 12.19 -0.46
13 13.39 -0.46
13 14.58 -0.46
13 15.37 -0.46
13 16.15 -0.46
13 16.94 -0.46
13 17.73 -0.46
13 18.92 1.32
13 20.07 1.32
13 21.21 1.32
13 18.92 0.79
13 20.07 0.79
13 21.21 0.79
13 18.92 -1.32
13 20.07 -1.32
13 21.21 -1.32
13 18.92 -0.79
13 20.07 -0.79
13 21.21 -0.79
16 0.00 1.37
16 0.79 1.37
16 1.57 1.37
16 2.36 1.37
16 3.15 1.37
16 3.94 1.37
16 4.72 1.37
16 5.51 1.37
16 6.30 1.37
16 7.09 1.37
16 7.87 1.37
16 8.66 1.37
16 9.45 1.37
16 10.24 1.37
16 11.02 1.37
16 11.81 1.37
16 13.00 1.37
16 14.20 1.37
16 14.99 1.37
16 15.77 1.37
16 16.56 1.37
16 17.35 1.37
16 0.00 0.91
16 0.79 0.91
16 1.57 0.91
16 2.36 0.91
16 3.15 0.91
16 3.94 0.91
16 4.72 0.91
16 5.51 0.91
16 6.30 0.91
16 7.09 0.91
16 7.87 0.91
16 8.66 0.91
16 9.45 0.91
16 10.24 0.91
16 11.02 0.91
16 11.81 0.91
16 13.00 0.91
16 14.20 0.91
16 14.99 0.91
16 15.77 0.91
16 16.56 0.91
16 17.35 0.91
16 0.00 0.46
16 0.79 0.46
16 1.57 0.46
16 2.36 0.46
16 3.15 0.46
16 3.94 0.46
16 4.72 0.46
16 5.51 0.46
16 6.30 0.46
16 7.09 0.46
16 7.87 0.46
16 8.66 0.46
16 9.45 0.46
16 10.24 0.46
16 11.02 0.46
16 11.81 0.46
16 13.00 0.46
16 14.20 0.46
16 14.99 0.46
16 15.77 0.46
16 16.56 0.46
16 17.35 0.46
16 0.00 -1.37
16 0.79 -1.37
16 1.57 -1.37
16 2.36 -1.37
16 3.15 -1.37
16 3.94 -1.37
16 4.72 -1.37
16 5.51 -1.37
16 6.30 -1.37
16 7.09 -1.37
16 7.87 -1.37
16 8.66 -1.37
16 9.45 -1.37
16 10.24 -1.37
16 11.02 -1.37
16 11.81 -1.37
16 13.00 -1.37
16 14.20 -1.37
16 14.99 -1.37
16 15.77 -1.37
16 16.56 -1.37
16 17.35 -1.37
16 0.00 -0.91
16 0.79 -0.91
16 1.57 -0.91
16 2.36 -0.91
16 3.15 -0.91
16 3.94 -0.91
16 4.72 -0.91
16 5.51 -0.91
16 6.30 -0.91
16 7.09 -0.91
16 7.87 -0.91
16 8.66 -0.91
16 9.45 -0.91
16 10.24 -0.91
16 11.02 -0.91
16 11.81 -0.91
16 13.00 -0.91
16 14.20 -0.91
16 14.99 -0.91
16 15.77 -0.91
16 16.56 -0.91
16 17.35 -0.91
16 0.00 -0.46
16 0.79 -0.46
16 1.57 -0.46
16 2.36 -0.46
16 3.15 -0.46
16 3.94 -0.46
16 4.72 -0.46
16 5.51 -0.46
16 6.30 -0.46
16 7.09 -0.46
16 7.87 -0.46
16 8.66 -0.46
16 9.45 -0.46
16 10.24 -0.46
16 11.02 -0.46
16 11.81 -0.46
16 13.00 -0.46
16 14.20 -0.46
16 14.99 -0.46
16 15.77 -0.46
16 16.56 -0.46
16 17.35 -0.46
16 18.54 1.32
16 19.68 1.32
16 20.83 1.32
16 18.54 0.79
16 19.68 0.79
16 20.83 0.79
16 18.54 -1.32
16 19.68 -1.32
16 20.83 -1.32
16 18.54 -0.79
16 19.68 -0.79
16 20.83 -0.79
16 -0.51 1.73
16 -0.38 1.73
16 -0.25 1.73
16 -0.13 1.73
16 0.00 1.73
16 0.13 1.73
16 0.25 1.73
16 0.38 1.73
16 0.51 1.73
16 0.64 1.73
16 0.76 1.73
16 0.89 1.73
16 1.02 1.73
16 1.14 1.73
16 1.27 1.73
16 1.40 1.73
16 1.52 1.73
16 1.65 1.73
16 1.78 1.73
16 1.91 1.73
16 2.03 1.73
16 2.16 1.73
16 2.29 1.73
16 2.41 1.73
16 2.54 1.73
16 2.67 1.73
16 2.79 1.73
16 2.92 1.73
16 3.05 1.73
16 3.17 1.73
16 3.30 1.73
16 3.43 1.73
16 3.56 1.73
16 3.68 1.73
16 3.81 1.73
16 3.94 1.73
16 4.06 1.73
16 4.19 1.73
16 4.32 1.73
16 4.44 1.73
16 4.57 1.73
16 4.70 1.73
16 4.83 1.73
16 4.95 1.73
16 5.08 1.73
16 5.21 1.73
16 5.33 1.73
16 5.46 1.73
16 5.59 1.73
16 5.71 1.73
16 5.84 1.73
16 5.97 1.73
16 6.10 1.73
16 6.22 1.73
16 6.35 1.73
16 6.48 1.73
16 6.60 1.73
16 6.73 1.73
16 6.86 1.73
16 6.98 1.73
16 7.11 1.73
16 7.24 1.73
16 7.37 1.73
16 7.49 1.73
16 7.62 1.73
16 7.75 1.73
16 7.87 1.73
16 8.00 1.73
16 8.13 1.73
16 8.25 1.73
16 8.38 1.73
16 8.51 1.73
16 8.64 1.73
16 8.76 1.73
16 8.89 1.73
16 9.02 1.73
16 9.14 1.73
16 9.27 1.73
16 9.40 1.73
16 9.53 1.73
16 9.65 1.73
16 9.78 1.73
16 9.91 1.73
16 10.03 1.73
16 10.16 1.73
16 10.29 1.73
16 10.41 1.73
16 10.54 1.73
16 10.67 1.73
16 10.79 1.73
16 10.92 1.73
16 11.05 1.73
16 11.18 1.73
16 11.30 1.73
16 11.43 1.73
16 11.56 1.73
16 11.68 1.73
16 11.81 1.73
16 11.94 1.73
16 12.06 1.73
16 12.19 1.73
16 12.32 1.73
16 12.45 1.73
16 12.57 1.73
16 12.70 1.73
16 12.83 1.73
16 12.95 1.73
16 13.08 1.73
16 13.21 1.73
16 13.33 1.73
16 13.46 1.73
16 13.59 1.73
16 13.72 1.73
16 13.84 1.73
16 13.97 1.73
16 14.10 1.73
16 14.22 1.73
16 14.35 1.73
16 14.48 1.73
16 14.60 1.73
16 14.73 1.73
16 14.86 1.73
16 14.99 1.73
16 15.11 1.73
16 15.24 1.73
16 15.37 1.73
16 15.49 1.73
16 15.62 1.73
16 15.75 1.73
16 15.88 1.73
16 16.00 1.73
16 16.13 1.73
16 16.26 1.73
16 16.38 1.73
16 16.51 1.73
16 16.64 1.73
16 16.76 1.73
16 16.89 1.73
16 17.02 1.73
16 17.14 1.73
16 17.27 1.73
16 17.40 1.73
16 17.53 1.73
16 17.65 1.73
16 17.78 1.73
16 17.91 1.73
16 18.03 1.73
16 18.16 1.73
16 18.29 1.73
16 18.41 1.73
16 18.54 1.73
16 18.67 1.73
16 18.80 1.73
16 18.92 1.73
16 19.05 1.73
16 19.18 1.73
16 19.30 1.73
16 19.43 1.73
16 19.56 1.73
16 19.68 1.73
16 19.81 1.73
16 19.94 1.73
16 20.07 1.73
16 20.19 1.73
16 20.32 1.73
16 20.45 1.73
16 20.57 1.73
16 20.70 1.73
16 20.83 1.73
16 20.95 1.73
16 21.08 1.73
16 21.21 1.73
16 21.34 1.73
16 21.46 1.73
16 21.59 1.73
16 21.72 1.73
16 21.84 1.73
16 21.97 1.73
16 22.10 1.73
16 22.22 1.73
16 22.35 1.73
16 22.48 1.73
16 22.61 1.73
16 22.73 1.73
16 22.86 1.73
16 22.99 1.73
16 23.11 1.73
16 24.00 1.73
16 24.00 1.60
16 24.00 1.47
16 24.00 1.35
16 24.00 1.22
16 24.00 1.09
16 24.00 0.97
16 24.00 0.84
16 24.00 0.71
16 24.00 0.58
16 24.00 0.46
16 24.00 0.33
16 24.00 0.20
16 24.00 0.08
16 24.00 -0.05
16 24.00 -0.18
16 24.00 -0.30
16 24.00 -0.43
16 24.00 -0.56
16 24.00 -0.69
16 24.00 -0.81
16 24.00 -0.94
16 24.00 -1.07
16 24.00 -1.19
16 24.00 -1.32
16 24.00 -1.45
16 24.00 -1.57
16 24.00 -1.73
16 -0.51 -1.73
16 -0.38 -1.73
16 -0.25 -1.73
16 -0.13 -1.73
16 0.00 -1.73
16 0.13 -1.73
16 0.25 -1.73
16 0.38 -1.73
16 0.51 -1.73
16 0.64 -1.73
16 0.76 -1.73
16 0.89 -1.73
16 1.02 -1.73
16 1.14 -1.73
16 1.27 -1.73
16 1.40 -1.73
16 1.52 -1.73
16 1.65 -1.73
16 1.78 -1.73
16 1.91 -1.73
16 2.03 -1.73
16 2.16 -1.73
16 2.29 -1.73
16 2.41 -1.73
16 2.54 -1.73
16 2.67 -1.73
16 2.79 -1.73
16 2.92 -1.73
16 3.05 -1.73
16 3.17 -1.73
16 3.30 -1.73
16 3.43 -1.73
16 3.56 -1.73
16 3.68 -1.73
16 3.81 -1.73
16 3.94 -1.73
16 4.06 -1.73
16 4.19 -1.73
16 4.32 -1.73
16 4.44 -1.73
16 4.57 -1.73
16 4.70 -1.73
16 4.83 -1.73
16 4.95 -1.73
16 5.08 -1.73
16 5.21 -1.73
16 5.33 -1.73
16 5.46 -1.73
16 5.59 -1.73
16 5.71 -1.73
16 5.84 -1.73
16 5.97 -1.73
16 6.10 -1.73
16 6.22 -1.73
16 6.35 -1.73
16 6.48 -1.73
16 6.60 -1.73
16 6.73 -1.73
16 6.86 -1.73
16 6.98 -1.73
16 7.11 -1.73
16 7.24 -1.73
16 7.37 -1.73
16 7.49 -1.73
16 7.62 -1.73
16 7.75 -1.73
16 7.87 -1.73
16 8.00 -1.73
16 8.13 -1.73
16 8.25 -1.73
16 8.38 -1.73
16 8.51 -1.73
16 8.64 -1.73
16 8.76 -1.73
16 8.89 -1.73
16 9.02 -1.73
16 9.14 -1.73
16 9.27 -1.73
16 9.40 -1.73
16 9.53 -1.73
16 9.65 -1.73
16 9.78 -1.73
16 9.91 -1.73
16 10.03 -1.73
16 10.16 -1.73
16 10.29 -1.73
16 10.41 -1.73
16 10.54 -1.73
16 10.67 -1.73
16 10.79 -1.73
16 10.92 -1.73
16 11.05 -1.73
16 11.18 -1.73
16 11.30 -1.73
16 11.43 -1.73
16 11.56 -1.73
16 11.68 -1.73
16 11.81 -1.73
16 11.94 -1.73
16 12.06 -1.73
16 12.19 -1.73
16 12.32 -1.73
16 12.45 -1.73
16 12.57 -1.73
16 12.70 -1.73
16 12.83 -1.73
16 12.95 -1.73
16 13.08 -1.73
16 13.21 -1.73
16 13.33 -1.73
16 13.46 -1.73
16 13.59 -1.73
16 13.72 -1.73
16 13.84 -1.73
16 13.97 -1.73
16 14.10 -1.73
16 14.22 -1.73
16 14.35 -1.73
16 14.48 -1.73
16 14.60 -1.73
16 14.73 -1.73
16 14.86 -1.73
16 14.99 -1.73
16 15.11 -1.73
16 15.24 -1.73
16 15.37 -1.73
16 15.49 -1.73
16 15.62 -1.73
16 15.75 -1.73
16 15.88 -1.73
16 16.00 -1.73
16 16.13 -1.73
16 16.26 -1.73
16 16.38 -1.73
16 16.51 -1.73
16 16.64 -1.73
16 16.76 -1.73
16 16.89 -1.73
16 17.02 -1.73
16 17.14 -1.73
16 17.27 -1.73
16 17.40 -1.73
16 17.53 -1.73
16 17.65 -1.73
16 17.78 -1.73
16 17.91 -1.73
16 18.03 -1.73
16 18.16 -1.73
16 18.29 -1.73
16 18.41 -1.73
16 18.54 -1.73
16 18.67 -1.73
16 18.80 -1.73
16 18.92 -1.73
16 19.05 -1.73
16 19.18 -1.73
16 19.30 -1.73
16 19.43 -1.73
16 19.56 -1.73
16 19.68 -1.73
16 19.81 -1.73
16 19.94 -1.73
16 20.07 -1.73
16 20.19 -1.73
16 20.32 -1.73
16 20.45 -1.73
16 20.57 -1.73
16 20.70 -1.73
16 20.83 -1.73
16 20.95 -1.73
16 21.08 -1.73
16 21.21 -1.73
16 21.34 -1.73
16 21.46 -1.73
16 21.59 -1.73
16 21.72 -1.73
16 21.84 -1.73
16 21.97 -1.73
16 22.10 -1.73
16 22.22 -1.73
16 22.35 -1.73
16 22.48 -1.73
16 22.61 -1.73
16 22.73 -1.73
16 22.86 -1.73
16 22.99 -1.73
16 23.11 -1.73
16 23.24 -1.73
16 23.37 -1.73
16 23.49 -1.73
16 23.67 -1.73
16 23.88 -1.73
16 -0.51 1.73
16 -0.51 1.60
16 -0.51 1.47
16 -0.51 1.35
16 -0.51 1.22
16 -0.51 1.09
16 -0.51 0.97
16 -0.51 0.84
16 -0.51 0.71
16 -0.51 0.58
16 -0.51 0.46
16 -0.51 0.33
16 -0.51 0.20
16 -0.51 0.08
16 -0.51 -0.05
16 -0.51 -0.18
16 -0.51 -0.30
16 -0.51 -0.43
16 -0.51 -0.56
16 -0.51 -0.69
16 -0.51 -0.81
16 -0.51 -0.94
16 -0.51 -1.07
16 -0.51 -1.19
16 -0.51 -1.32
16 -0.51 -1.45
16 -0.51 -1.57
16 -0.51 -1.73
16 21.97 1.37
16 23.11 1.37
16 21.97 0.91
16 23.11 0.91
16 21.97 0.46
16 23.11 0.46
16 21.97 -1.37
16 23.11 -1.37
16 21.97 -0.91
16 23.11 -0.91
16 21.97 -0.46
16 23.11 -0.46
16 22.56 -0.46
16 22.56 0.46
